# Created by Kenney (www.kenney.nl)

newmtl paintWhite
Kd 0.8980392 0.9058824 0.9686275

newmtl paintRed
Kd 1 0.227451 0.3019608

newmtl plastic
Kd 0.3764706 0.3764706 0.3764706

newmtl _defaultMat
Kd 1 1 1

newmtl lightFront
Kd 1 0.9762833 0.9292453

newmtl window
Kd 0.3 0.1 0.5

newmtl lightBlue
Kd 0.3568628 0.6941177 1

newmtl carTire
Kd 0.2392157 0.2392157 0.2392157

